Project Report
…
home_data_2018

## # A tibble: 401 x 20
##    co_c_number co_c_name co_c_category overall_homeless sheltered_total~
##    <chr>       <chr>     <chr>         <chr>            <chr>           
##  1 AK-500      Anchorag~ Other Urban ~ 1094             1000            
##  2 AK-501      Alaska B~ Rural CoCs    922              707             
##  3 AL-500      Birmingh~ Suburban CoCs 901              682             
##  4 AL-501      Mobile C~ Other Urban ~ 551              318             
##  5 AL-502      Florence~ Rural CoCs    256              234             
##  6 AL-503      Huntsvil~ Other Urban ~ 424              308             
##  7 AL-504      Montgome~ Other Urban ~ 369              300             
##  8 AL-505      Gadsden/~ Rural CoCs    146              86              
##  9 AL-506      Tuscaloo~ Other Urban ~ 57               56              
## 10 AL-507      Alabama ~ Rural CoCs    730              440             
## # ... with 391 more rows, and 15 more variables:
## #   unsheltered_homeless <chr>, homeless_people_in_families <chr>,
## #   sheltered_total_homeless_people_in_families <chr>,
## #   unsheltered_homeless_people_in_families <chr>,
## #   homeless_family_households <chr>,
## #   sheltered_total_homeless_family_households <chr>,
## #   unsheltered_homeless_family_households <chr>,
## #   chronically_homeless <chr>,
## #   sheltered_total_chronically_homeless <chr>,
## #   unsheltered_chronically_homeless <chr>, homeless_veterans <chr>,
## #   sheltered_total_homeless_veterans <chr>,
## #   unsheltered_homeless_veterans <chr>,
## #   homeless_unaccompanied_youth_under_18 <chr>, year <dbl>

home_data_2017 = home_data_2017 %>%
  janitor::clean_names() %>%
  mutate(year = 2017) %>%
  rename_at(.vars = vars(ends_with("_2017")),
            .funs = funs(sub("[_]2017$", "", .))) %>%
  select(co_c_number, co_c_name, overall_homeless, sheltered_total_homeless, unsheltered_homeless, homeless_people_in_families, sheltered_total_homeless_people_in_families, unsheltered_homeless_people_in_families, homeless_family_households, sheltered_total_homeless_family_households, unsheltered_homeless_family_households, chronically_homeless, sheltered_total_chronically_homeless, unsheltered_chronically_homeless, homeless_veterans, sheltered_total_homeless_veterans, unsheltered_homeless_veterans, homeless_unaccompanied_youth_under_18, year)
home_data_2017

## # A tibble: 400 x 19
##    co_c_number co_c_name overall_homeless sheltered_total~ unsheltered_hom~
##    <chr>       <chr>     <chr>            <chr>            <chr>           
##  1 AK-500      Anchorag~ 1128             973              155             
##  2 AK-501      Alaska B~ 717              578              139             
##  3 AL-500      Birmingh~ 1092             875              217             
##  4 AL-501      Mobile C~ 606              341              265             
##  5 AL-502      Florence~ 155              133              22              
##  6 AL-503      Huntsvil~ 436              337              99              
##  7 AL-504      Montgome~ 377              314              63              
##  8 AL-505      Gadsden/~ 163              103              60              
##  9 AL-506      Tuscaloo~ 200              137              63              
## 10 AL-507      Alabama ~ 764              416              348             
## # ... with 390 more rows, and 14 more variables:
## #   homeless_people_in_families <chr>,
## #   sheltered_total_homeless_people_in_families <chr>,
## #   unsheltered_homeless_people_in_families <chr>,
## #   homeless_family_households <chr>,
## #   sheltered_total_homeless_family_households <chr>,
## #   unsheltered_homeless_family_households <chr>,
## #   chronically_homeless <chr>,
## #   sheltered_total_chronically_homeless <chr>,
## #   unsheltered_chronically_homeless <chr>, homeless_veterans <chr>,
## #   sheltered_total_homeless_veterans <chr>,
## #   unsheltered_homeless_veterans <chr>,
## #   homeless_unaccompanied_youth_under_18 <chr>, year <dbl>

home_data_2016 = home_data_2016 %>%
  janitor::clean_names() %>%
  mutate(year = 2016) %>%
  rename_at(.vars = vars(ends_with("_2016")),
            .funs = funs(sub("[_]2016$", "", .))) %>%
  select(co_c_number, co_c_name, overall_homeless, sheltered_total_homeless, unsheltered_homeless, homeless_people_in_families, sheltered_total_homeless_people_in_families, unsheltered_homeless_people_in_families, homeless_family_households, sheltered_total_homeless_family_households, unsheltered_homeless_family_households, chronically_homeless, sheltered_total_chronically_homeless, unsheltered_chronically_homeless, homeless_veterans, sheltered_total_homeless_veterans, unsheltered_homeless_veterans, homeless_unaccompanied_youth_under_18, year)
home_data_2016

## # A tibble: 399 x 19
##    co_c_number co_c_name overall_homeless sheltered_total~ unsheltered_hom~
##    <chr>       <chr>     <chr>            <chr>            <chr>           
##  1 AK-500      Anchorag~ 1105             865              240             
##  2 AK-501      Alaska B~ 835              633              202             
##  3 AL-500      Birmingh~ 1228             1032             196             
##  4 AL-501      Mobile C~ 623              387              236             
##  5 AL-502      Florence~ 337              286              51              
##  6 AL-503      Huntsvil~ 385              298              87              
##  7 AL-504      Montgome~ 367              293              74              
##  8 AL-505      Gadsden/~ 167              91               76              
##  9 AL-506      Tuscaloo~ 177              47               130             
## 10 AL-507      Alabama ~ 827              459              368             
## # ... with 389 more rows, and 14 more variables:
## #   homeless_people_in_families <chr>,
## #   sheltered_total_homeless_people_in_families <chr>,
## #   unsheltered_homeless_people_in_families <chr>,
## #   homeless_family_households <chr>,
## #   sheltered_total_homeless_family_households <chr>,
## #   unsheltered_homeless_family_households <chr>,
## #   chronically_homeless <chr>,
## #   sheltered_total_chronically_homeless <chr>,
## #   unsheltered_chronically_homeless <chr>, homeless_veterans <chr>,
## #   sheltered_total_homeless_veterans <chr>,
## #   unsheltered_homeless_veterans <chr>,
## #   homeless_unaccompanied_youth_under_18 <chr>, year <dbl>

home_data_2015 = home_data_2015 %>%
  janitor::clean_names() %>%
  mutate(year = 2015) %>%
  rename_at(.vars = vars(ends_with("_2015")),
            .funs = funs(sub("[_]2015$", "", .))) %>%
   select(co_c_number, co_c_name, overall_homeless, sheltered_total_homeless, unsheltered_homeless, homeless_people_in_families, sheltered_total_homeless_people_in_families, unsheltered_homeless_people_in_families, homeless_family_households, sheltered_total_homeless_family_households, unsheltered_homeless_family_households, chronically_homeless, sheltered_total_chronically_homeless, unsheltered_chronically_homeless, homeless_veterans, sheltered_total_homeless_veterans, unsheltered_homeless_veterans, homeless_unaccompanied_youth_under_18, year)
home_data_2015

## # A tibble: 400 x 19
##    co_c_number co_c_name overall_homeless sheltered_total~ unsheltered_hom~
##    <chr>       <chr>     <chr>            <chr>            <chr>           
##  1 AK-500      Anchorag~ 1208             1029             179             
##  2 AK-501      Alaska B~ 748              610              138             
##  3 AL-500      Birmingh~ 1153             916              237             
##  4 AL-501      Mobile C~ 578              364              214             
##  5 AL-502      Florence~ 245              214              31              
##  6 AL-503      Huntsvil~ 420              357              63              
##  7 AL-504      Montgome~ 441              373              68              
##  8 AL-505      Gadsden/~ 156              103              53              
##  9 AL-506      Tuscaloo~ 339              144              195             
## 10 AL-507      Alabama ~ 638              472              166             
## # ... with 390 more rows, and 14 more variables:
## #   homeless_people_in_families <chr>,
## #   sheltered_total_homeless_people_in_families <chr>,
## #   unsheltered_homeless_people_in_families <chr>,
## #   homeless_family_households <chr>,
## #   sheltered_total_homeless_family_households <chr>,
## #   unsheltered_homeless_family_households <chr>,
## #   chronically_homeless <chr>,
## #   sheltered_total_chronically_homeless <chr>,
## #   unsheltered_chronically_homeless <chr>, homeless_veterans <chr>,
## #   sheltered_total_homeless_veterans <chr>,
## #   unsheltered_homeless_veterans <chr>,
## #   homeless_unaccompanied_youth_under_18 <chr>, year <dbl>

home_data_2014 = home_data_2014 %>%
  janitor::clean_names() %>%
  mutate(year = 2014) %>%
  rename_at(.vars = vars(ends_with("_2014")),
            .funs = funs(sub("[_]2014$", "", .))) %>%
   select(co_c_number, co_c_name, overall_homeless, sheltered_total_homeless, unsheltered_homeless, homeless_people_in_families, sheltered_total_homeless_people_in_families, unsheltered_homeless_people_in_families, homeless_family_households, sheltered_total_homeless_family_households, unsheltered_homeless_family_households, chronically_homeless, sheltered_total_chronically_homeless, unsheltered_chronically_homeless, homeless_veterans, sheltered_total_homeless_veterans, unsheltered_homeless_veterans, year)
home_data_2014

## # A tibble: 396 x 18
##    co_c_number co_c_name overall_homeless sheltered_total~ unsheltered_hom~
##    <chr>       <chr>     <chr>            <chr>            <chr>           
##  1 AK-500      Anchorag~ 1023             970              53              
##  2 AK-501      Alaska B~ 761              669              92              
##  3 AL-500      Birmingh~ 1329             915              414             
##  4 AL-501      Mobile C~ 598              461              137             
##  5 AL-502      Florence~ 209              189              20              
##  6 AL-503      Huntsvil~ 536              499              37              
##  7 AL-504      Montgome~ 490              409              81              
##  8 AL-505      Gadsden/~ 438              368              70              
##  9 AL-506      Tuscaloo~ 245              133              112             
## 10 AL-507      Alabama ~ 716              544              172             
## # ... with 386 more rows, and 13 more variables:
## #   homeless_people_in_families <chr>,
## #   sheltered_total_homeless_people_in_families <chr>,
## #   unsheltered_homeless_people_in_families <chr>,
## #   homeless_family_households <chr>,
## #   sheltered_total_homeless_family_households <chr>,
## #   unsheltered_homeless_family_households <chr>,
## #   chronically_homeless <chr>,
## #   sheltered_total_chronically_homeless <chr>,
## #   unsheltered_chronically_homeless <chr>, homeless_veterans <chr>,
## #   sheltered_total_homeless_veterans <chr>,
## #   unsheltered_homeless_veterans <chr>, year <dbl>

home_data_2013 = home_data_2013 %>%
  janitor::clean_names() %>%
  mutate(year = 2013) %>%
  rename_at(.vars = vars(ends_with("_2013")),
            .funs = funs(sub("[_]2013$", "", .))) %>%
   select(co_c_number, co_c_name, overall_homeless, sheltered_total_homeless, unsheltered_homeless, homeless_people_in_families, sheltered_total_homeless_people_in_families, unsheltered_homeless_people_in_families, homeless_family_households, sheltered_total_homeless_family_households, unsheltered_homeless_family_households, chronically_homeless, sheltered_total_chronically_homeless, unsheltered_chronically_homeless, homeless_veterans, sheltered_total_homeless_veterans, unsheltered_homeless_veterans, year)
home_data_2013

## # A tibble: 397 x 18
##    co_c_number co_c_name overall_homeless sheltered_total~ unsheltered_hom~
##    <chr>       <chr>     <chr>            <chr>            <chr>           
##  1 AK-500      Anchorag~ 1122             1070             52              
##  2 AK-501      Alaska B~ 824              671              153             
##  3 AL-500      Birmingh~ 1469             960              509             
##  4 AL-501      Mobile C~ 493              260              233             
##  5 AL-502      Florence~ 223              197              26              
##  6 AL-503      Huntsvil~ 586              409              177             
##  7 AL-504      Montgome~ 515              399              116             
##  8 AL-505      Gadsden/~ 399              329              70              
##  9 AL-506      Tuscaloo~ 99               95               4               
## 10 AL-507      Alabama ~ 905              597              308             
## # ... with 387 more rows, and 13 more variables:
## #   homeless_people_in_families <chr>,
## #   sheltered_total_homeless_people_in_families <chr>,
## #   unsheltered_homeless_people_in_families <chr>,
## #   homeless_family_households <chr>,
## #   sheltered_total_homeless_family_households <chr>,
## #   unsheltered_homeless_family_households <chr>,
## #   chronically_homeless <chr>,
## #   sheltered_total_chronically_homeless <chr>,
## #   unsheltered_chronically_homeless <chr>, homeless_veterans <chr>,
## #   sheltered_total_homeless_veterans <chr>,
## #   unsheltered_homeless_veterans <chr>, year <dbl>

home_data_2012 = home_data_2012 %>%
  janitor::clean_names() %>%
  mutate(year = 2012) %>%
  rename_at(.vars = vars(ends_with("_2012")),
            .funs = funs(sub("[_]2012$", "", .))) %>%
   select(co_c_number, co_c_name, overall_homeless, sheltered_total_homeless, unsheltered_homeless, homeless_people_in_families, sheltered_total_homeless_people_in_families, unsheltered_homeless_people_in_families, homeless_family_households, sheltered_total_homeless_family_households, unsheltered_homeless_family_households, chronically_homeless, sheltered_total_chronically_homeless, unsheltered_chronically_homeless, homeless_veterans, sheltered_total_homeless_veterans, unsheltered_homeless_veterans, year)
home_data_2012

## # A tibble: 396 x 18
##    co_c_number co_c_name overall_homeless sheltered_total~ unsheltered_hom~
##    <chr>       <chr>     <chr>            <chr>            <chr>           
##  1 AK-500      Anchorag~ 1147             1097             50              
##  2 AK-501      Alaska B~ 766              619              147             
##  3 AL-500      Birmingh~ 1707             1009             698             
##  4 AL-501      Mobile C~ 634              324              310             
##  5 AL-502      Florence~ 192              188              4               
##  6 AL-503      Huntsvil~ 607              432              175             
##  7 AL-504      Montgome~ 487              343              144             
##  8 AL-505      Gadsden/~ 544              424              120             
##  9 AL-506      Tuscaloo~ 152              128              24              
## 10 AL-507      Alabama ~ 886              816              70              
## # ... with 386 more rows, and 13 more variables:
## #   homeless_people_in_families <chr>,
## #   sheltered_total_homeless_people_in_families <chr>,
## #   unsheltered_homeless_people_in_families <chr>,
## #   homeless_family_households <chr>,
## #   sheltered_total_homeless_family_households <chr>,
## #   unsheltered_homeless_family_households <chr>,
## #   chronically_homeless <chr>,
## #   sheltered_total_chronically_homeless <chr>,
## #   unsheltered_chronically_homeless <chr>, homeless_veterans <chr>,
## #   sheltered_total_homeless_veterans <chr>,
## #   unsheltered_homeless_veterans <chr>, year <dbl>

home_data_2011 = home_data_2011 %>%
  janitor::clean_names() %>%
  mutate(year = 2011) %>%
  rename_at(.vars = vars(ends_with("_2011")),
            .funs = funs(sub("[_]2011$", "", .))) %>%
   select(co_c_number, co_c_name, overall_homeless, sheltered_total_homeless, unsheltered_homeless, homeless_people_in_families, sheltered_total_homeless_people_in_families, unsheltered_homeless_people_in_families, homeless_family_households, sheltered_total_homeless_family_households, unsheltered_homeless_family_households, chronically_homeless, sheltered_total_chronically_homeless, unsheltered_chronically_homeless, homeless_veterans, sheltered_total_homeless_veterans, unsheltered_homeless_veterans, year)
home_data_2011

## # A tibble: 398 x 18
##    co_c_number co_c_name overall_homeless sheltered_total~ unsheltered_hom~
##    <chr>       <chr>     <chr>            <chr>            <chr>           
##  1 AK-500      Anchorag~ 1223             1082             141             
##  2 AK-501      Alaska B~ 905              678              227             
##  3 AL-500      Birmingh~ 1950             1024             926             
##  4 AL-501      Mobile C~ 718              407              311             
##  5 AL-502      Florence~ 244              234              10              
##  6 AL-503      Huntsvil~ 656              481              175             
##  7 AL-504      Montgome~ 433              287              146             
##  8 AL-505      Gadsden/~ 495              353              142             
##  9 AL-506      Tuscaloo~ 265              236              29              
## 10 AL-507      Alabama ~ 797              727              70              
## # ... with 388 more rows, and 13 more variables:
## #   homeless_people_in_families <chr>,
## #   sheltered_total_homeless_people_in_families <chr>,
## #   unsheltered_homeless_people_in_families <chr>,
## #   homeless_family_households <chr>,
## #   sheltered_total_homeless_family_households <chr>,
## #   unsheltered_homeless_family_households <chr>,
## #   chronically_homeless <chr>,
## #   sheltered_total_chronically_homeless <chr>,
## #   unsheltered_chronically_homeless <chr>, homeless_veterans <chr>,
## #   sheltered_total_homeless_veterans <chr>,
## #   unsheltered_homeless_veterans <chr>, year <dbl>

home_data_2010 = home_data_2010 %>%
  janitor::clean_names() %>%
  mutate(year = 2010) %>%
  rename_at(.vars = vars(ends_with("_2010")),
            .funs = funs(sub("[_]2010$", "", .))) %>%
   select(co_c_number, co_c_name, overall_homeless, sheltered_total_homeless, unsheltered_homeless, homeless_people_in_families, sheltered_total_homeless_people_in_families, unsheltered_homeless_people_in_families, homeless_family_households, sheltered_total_homeless_family_households, unsheltered_homeless_family_households, year)
home_data_2010

## # A tibble: 395 x 12
##    co_c_number co_c_name overall_homeless sheltered_total~ unsheltered_hom~
##    <chr>       <chr>                <dbl>            <dbl>            <dbl>
##  1 AK-500      Anchorag~             1231             1113              118
##  2 AK-501      Alaska B~              632              558               74
##  3 AL-500      Birmingh~             2273             1069             1204
##  4 AL-501      Mobile C~              883              482              401
##  5 AL-502      Florence~              170              162                8
##  6 AL-503      Huntsvil~              819              645              174
##  7 AL-504      Montgome~              444              294              150
##  8 AL-505      Gadsden/~              370              294               76
##  9 AL-506      Tuscaloo~              278              263               15
## 10 AL-507      Alabama ~              809              682              127
## # ... with 385 more rows, and 7 more variables:
## #   homeless_people_in_families <dbl>,
## #   sheltered_total_homeless_people_in_families <dbl>,
## #   unsheltered_homeless_people_in_families <dbl>,
## #   homeless_family_households <dbl>,
## #   sheltered_total_homeless_family_households <dbl>,
## #   unsheltered_homeless_family_households <dbl>, year <dbl>
…
